﻿    0:00.050       18     +    0    0    0	(N
    0:00.214       77     N    0    0    0
    0:01.028      370     N    0    0    0
    0:01.839      662     N    0    0    0
    0:02.628      946     N    0    0    0
    0:03.419     1231     N    0    0    0
    0:04.208     1515     N    0    0    0
    0:05.025     1809     N    0    0    0
    0:05.678     2044     A    0    0    0
    0:06.672     2402     N    0    0    0
    0:07.517     2706     N    0    0    0
    0:08.328     2998     N    0    0    0
    0:09.117     3282     N    0    0    0
    0:09.889     3560     N    0    0    0
    0:10.728     3862     N    0    0    0
    0:11.583     4170     N    0    0    0
    0:12.406     4466     N    0    0    0
    0:13.233     4764     N    0    0    0
    0:14.056     5060     N    0    0    0
    0:14.850     5346     N    0    0    0
    0:15.647     5633     N    0    0    0
    0:16.439     5918     N    0    0    0
    0:17.261     6214     N    0    0    0
    0:18.131     6527     N    0    0    0
    0:18.953     6823     N    0    0    0
    0:19.739     7106     N    0    0    0
    0:20.531     7391     N    0    0    0
    0:21.306     7670     N    0    0    0
    0:22.092     7953     N    0    0    0
    0:22.903     8245     N    0    0    0
    0:23.719     8539     N    0    0    0
    0:24.547     8837     N    0    0    0
    0:25.392     9141     N    0    0    0
    0:26.197     9431     N    0    0    0
    0:26.972     9710     N    0    0    0
    0:27.772     9998     N    0    0    0
    0:28.561    10282     N    0    0    0
    0:29.419    10591     N    0    0    0
    0:30.261    10894     N    0    0    0
    0:31.086    11191     N    0    0    0
    0:31.889    11480     N    0    0    0
    0:32.725    11781     N    0    0    0
    0:33.517    12066     N    0    0    0
    0:34.306    12350     N    0    0    0
    0:35.125    12645     N    0    0    0
    0:35.969    12949     N    0    0    0
    0:36.850    13266     N    0    0    0
    0:37.672    13562     N    0    0    0
    0:38.450    13842     N    0    0    0
    0:39.253    14131     N    0    0    0
    0:40.064    14423     N    0    0    0
    0:40.861    14710     N    0    0    0
    0:41.697    15011     N    0    0    0
    0:42.528    15310     N    0    0    0
    0:43.353    15607     N    0    0    0
    0:44.164    15899     N    0    0    0
    0:44.953    16183     N    0    0$   4
    0:45.733    16464     N    0    0    0
    0:46.542    16755     N    0    0    0
    0:47.383    17058     N    0    0    0
    0:48.217    17358     N    0    0    0
    0:49.047    17657     N    0    0    0
    0:49.853    17947     N    0    0    0
    0:50.631    18227     N    0    0    0
    0:51.428    18514     N    0    0    0
    0:52.208    18795     N    0    0    0
    0:53.000    19080     N    0    0    0
    0:53.856    19388     N    0    0    0
    0:54.703    19693     N    0    0    0
    0:55.525    19989     N    0    0    0
    0:56.308    20271     N    0    0    0
    0:57.094    20554     N    0    0    0
    0:57.881    20837     N    0    0    0
    0:58.697    21131     N    0    0    0
    0:59.508    21423     N    0    0    0
    1:00.358    21729     N    0    0    0
    1:01.192    22029     N    0    0    0
    1:02.003    22321     N    0    0    0
    1:02.786    22603     N    0    0    0
    1:03.558    22881     N    0    0    0
    1:04.344    23164     N    0    0    0
    1:05.147    23453     N    0    0    0
    1:05.989    23756     N    0    0    0
    1:06.814    24053     N    0    0    0
    1:07.625    24345     N    0    0    0
    1:08.403    24625     N    0    0    0
    1:09.203    24913     N    0    0    0
    1:09.992    25197     N    0    0    0
    1:10.792    25485     N    0    0    0
    1:11.608    25779     N    0    0    0
    1:12.467    26088     N    0    0    0
    1:13.297    26387     N    0    0    0
    1:14.083    26670     N    0    0    0
    1:14.867    26952     N    0    0    0
    1:15.658    27237     N    0    0    0
    1:16.489    27536     N    0    0    0
    1:17.314    27833     N    0    0    0
    1:18.144    28132     N    0    0    0
    1:18.975    28431     N    0    0    0
    1:19.797    28727     N    0    0    0
    1:20.594    29014     N    0    0    0
    1:21.372    29294     N    0    0    0
    1:22.167    29580     N    0    0    0
    1:22.981    29873     N    0    0    0
    1:23.839    30182     N    0    0    0
    1:24.686    30487     N    0    0    0
    1:25.497    30779     N    0    0    0
    1:26.292    31065     N    0    0    0
    1:27.078    31348     N    0    0    0
    1:27.875    31635     N    0    0    0
    1:28.686    31927     N    0    0    0
    1:29.511    32224     N    0    0    0
    1:30.358    32529     N    0    0    0
    1:31.211    32836     N    0    0    0
    1:32.019    33127     N    0    0    0
    1:32.786    33403     N    0    0    0
    1:33.586    33691     N    0    0    0
    1:34.389    33980     N    0    0    0
    1:35.206    34274     N    0    0    0
    1:36.042    34575     N    0    0    0
    1:36.861    34870     N    0    0    0
    1:37.689    35168     N    0    0    0
    1:38.486    35455     N    0    0    0
    1:39.267    35736     N    0    0    0
    1:40.044    36016     N    0    0    0
    1:40.858    36309     N    0    0    0
    1:41.681    36605     N    0    0    0
    1:42.544    36916     N    0    0    0
    1:43.375    37215     N    0    0    0
    1:44.164    37499     N    0    0    0
    1:44.950    37782     N    0    0    0
    1:45.753    38071     N    0    0    0
    1:46.544    38356     N    0    0    0
    1:47.364    38651     N    0    0    0
    1:48.194    38950     N    0    0    0
    1:49.033    39252     N    0    0    0
    1:49.853    39547     N    0    0    0
    1:50.625    39825     N    0    0    0
    1:51.378    40096     N    0    0    0
    1:52.172    40382     N    0    0    0
    1:52.992    40677     N    0    0    0
    1:53.806    40970     N    0    0    0
    1:54.642    41271     N    0    0    0
    1:55.464    41567     N    0    0    0
    1:56.247    41849     N    0    0    0
    1:56.992    42117     N    0    0    0
    1:57.822    42416     N    0    0    0
    1:58.603    42697     N    0    0    0
    1:59.433    42996     N    0    0    0
    2:00.297    43307     N    0    0    4
 $  2:01.119 $  43603     N    0    0    0
    2:01.922    43892     N    0    0    0
    2:02.700    44172     N    0    0    0
    2:03.486    44455     N    0    0    0
    2:04.286    44743     N    0    0    0
    2:05.083    45030     N    0    0    0
    2:05.897    45323     N    0    0    0
    2:06.744    45628     N    0    0    0
    2:07.569    45925     N    0    0    0
    2:08.344    46204     N    0    0    0
    2:09.106    46478     N    0    0    0
    2:09.886    46759     N    0    0    0
    2:10.658    47037     N    0    0    0
    2:11.483    47334     N    0    0    0
    2:12.311    47632     N    0    0    0
    2:13.108    47919     N    0    0    0
    2:13.894    48202     N    0    0    0
    2:14.683    48486     N    0    0    0
    2:15.461    48766     N    0    0    0
    2:16.222    49040     N    0    0    0
    2:17.008    49323     N    0    0    0
    2:17.828    49618     N    0    0    0
    2:18.675    49923     N    0    0    0
    2:19.483    50214     N    0    0    0
    2:20.253    50491     N    0    0    0
    2:21.031    50771     N    0    0    0
    2:21.822    51056     N    0    0    0
    2:22.608    51339     N    0    0    0
    2:23.406    51626     N    0    0    0
    2:24.225    51921     N    0    0    0
    2:25.044    52216     N    0    0    0
    2:25.850    52506     N    0    0    0
    2:26.622    52784     N    0    0    0
    2:27.397    53063     N    0    0    0
    2:28.169    53341     N    0    0    0
    2:28.975    53631     N    0    0    0
    2:29.786    53923     N    0    0    0
    2:30.608    54219     N    0    0    0
    2:31.408    54507     N    0    0    0
    2:32.178    54784     N    0    0    0
    2:32.956    55064     N    0    0    0
    2:33.731    55343     N    0    0    0
    2:34.514    55625     N    0    0    0
    2:35.300    55908     N    0    0    0
    2:36.131    56207     N    0    0    0
    2:36.950    56502     N    0    0    0
    2:37.733    56784     N    0    0    0
    2:38.486    57055     N    0    0    0
    2:39.258    57333     N    0    0    0
    2:40.042    57615     N    0    0    0
    2:40.833    57900     N    0    0    0
    2:41.644    58192     N    0    0    0
    2:42.472    58490     N    0    0    0
    2:43.300    58788     N    0    0    0
    2:44.103    59077     N    0    0    0
    2:44.872    59354     N    0    0    0
    2:45.642    59631     N    0    0    0
    2:46.442    59919     N    0    0    0
    2:47.261    60214     N    0    0    0
    2:48.097    60515     N    0    0    0
    2:48.936    60817     N    0    0    0
    2:49.736    61105     N    0    0    0
    2:50.531    61391     N    0    0    0
    2:51.333    61680     N    0    0    0
    2:52.119    61963     N    0    0    0
    2:52.908    62247     N    0    0    0
    2:53.742    62547     N    0    0    0
    2:54.589    62852     N    0    0    0
    2:55.428    63154     N    0    0    0
    2:56.217    63438     N    0    0    0
    2:56.975    63711     N    0    0    0
    2:57.772    63998     N    0    0    0
    2:58.578    64288     N    0    0    0
    2:59.392    64581     N    0    0    0
    3:00.211    64876     N    0    0    0
    3:01.039    65174     N    0    0    0
    3:01.844    65464     N    0    0    0
    3:02.639    65750     N    0    0    0
    3:03.417    66030     N    0    0    0
    3:04.186    66307     N    0    0    0
    3:05.011    66604     N    0    0    0
    3:05.533    66792     A    0    0    0
    3:06.472    67130     N    0    0    0
    3:07.317    67434     N    0    0    0
    3:08.133    67728     N    0    0    0
    3:08.908    68007     N    0    0    0
    3:09.728    68302     N    0    0    0
    3:10.539    68594     N    0    0    0
    3:11.350    68886     N    0    0    0
    3:12.197    69191     N    0    0    0
    3:13.064    69503     N    0    0    0
    3:13.878    69796     N    0    0    0
    3:14.647    70073     N    0    0    0
 $  3:15.436    74357     N    0    0    0
    3:16.231    70643     N    0    0    0
    3:17.058    70941     N    0    0    0
    3:17.889    71240     N    0    0    0
    3:18.719    71539     N    0    0    0
    3:19.569    71845     N    0    0    0
    3:20.383    72138     N    0    0    0
    3:21.158    72417     N    0    0    0
    3:21.953    72703     N    0    0    0
    3:22.772    72998     N    0    0    0
    3:23.614    73301     N    0    0    0
    3:24.475    73611     N    0    0    0
    3:25.308    73911     N    0    0    0
    3:26.100    74196     N    0    0    0
    3:26.897    74483     N    0    0    0
    3:27.686    74767     N    0    0    0
    3:28.294    74986     A    0    0    0
    3:29.256    75332     N    0    0    0
    3:30.089    75632     N    0    0    0
    3:30.928    75934     N    0    0    0
    3:31.758    76233     N    0    0    0
    3:32.542    76515     N    0    0    0
    3:33.292    76785     N    0    0    0
    3:34.094    77074     N    0    0    0
    3:34.906    77366     N    0    0    0
    3:35.731    77663     N    0    0    0
    3:36.539    77954     N    0    0    0
    3:37.364    78251     N    0    0    0
    3:38.164    78539     N    0    0    0
    3:38.956    78824     N    0    0    0
    3:39.722    79100     N    0    0    0
    3:40.517    79386     N    0    0    0
    3:41.358    79689     N    0    0    0
    3:42.197    79991     N    0    0    0
    3:43.028    80290     N    0    0    0
    3:43.842    80583     N    0    0    0
    3:44.633    80868     N    0    0    0
    3:45.422    81152     N    0    0    0
    3:46.219    81439     N    0    0    0
    3:47.028    81730     N    0    0    0
    3:47.861    82030     N    0    0    0
    3:48.708    82335     N    0    0    0
    3:49.544    82636     N    0    0    0
    3:50.353    82927     N    0    0    0
    3:51.136    83209     N    0    0    0
    3:51.922    83492     N    0    0    0
    3:52.761    83794     N    0    0    0
    3:53.619    84103     N    0    0    0
    3:54.464    84407     N    0    0    0
    3:55.303    84709     N    0    0    0
    3:56.139    85010     N    0    0    0
    3:56.953    85303     N    0    0    0
    3:57.722    85580     N    0    0    0
    3:58.528    85870     N    0    0    0
    3:59.364    86171     N    0    0    0
    4:00.217    86478     N    0    0    0
    4:01.056    86780     N    0    0    0
    4:01.886    87079     N    0    0    0
    4:02.678    87364     N    0    0    0
    4:03.478    87652     N    0    0    0
    4:04.281    87941     N    0    0    0
    4:05.089    88232     N    0    0    0
    4:05.917    88530     N    0    0    0
    4:06.761    88834     N    0    0    0
    4:07.597    89135     N    0    0    0
    4:08.392    89421     N    0    0    0
    4:09.175    89703     N    0    0    0
    4:09.967    89988     N    0    0    0
    4:10.794    90286     N    0    0    0
    4:11.639    90590     N    0    0    0
    4:12.458    90885     N    0    0    0
    4:13.306    91190     N    0    0    0
    4:14.114    91481     N    0    0    0
    4:14.892    91761     N    0    0    0
    4:15.683    92046     N    0    0    0
    4:16.494    92338     N    0    0    0
    4:17.314    92633     N    0    0    0
    4:18.178    92944     N    0    0    0
    4:19.017    93246     N    0    0    0
    4:19.817    93534     N    0    0    0
    4:20.622    93824     N    0    0    0
    4:21.394    94102     N    0    0    0
    4:22.208    94395     N    0    0    0
    4:23.036    94693     N    0    0    0
    4:23.878    94996     N    0    0    0
    4:24.717    95298     N    0    0    0
    4:25.572    95606     N    0    0    0
    4:26.369    95893     N    0    0    0
    4:27.142    96171     N    0    0    0
    4:27.917    96450     N    0    0    0
    4:28.739    96746     N    0    0    0
    4:29.583    97050     N    0    0    0
    4:30.411    97348     N    0    0    0
    4:31.633    97644$    N    0    0    0
    4:32.044    97936     N    0    0    0
    4:32.856    98228     N    0    0    0
    4:33.633    98508     N    0    0    0
    4:34.414    98789     N    0    0    0
    4:35.233    99084     N    0    0    0
    4:36.061    99382     N    0    0    0
    4:36.608    99579     A    0    0    0
    4:37.583    99930     N    0    0    0
    4:38.383   100218     N    0    0    0
    4:39.156   100496     N    0    0    0
    4:39.947   100781     N    0    0    0
    4:40.753   101071     N    0    0    0
    4:41.558   101361     N    0    0    0
    4:42.369   101653     N    0    0    0
    4:43.169   101941     N    0    0    0
    4:43.983   102234     N    0    0    0
    4:44.767   102516     N    0    0    0
    4:45.536   102793     N    0    0    0
    4:46.317   103074     N    0    0    0
    4:47.142   103371     N    0    0    0
    4:47.969   103669     N    0    0    0
    4:48.789   103964     N    0    0    0
    4:49.614   104261     N    0    0    0
    4:50.403   104545     N    0    0    0
    4:51.194   104830     N    0    0    0
    4:51.994   105118     N    0    0    0
    4:52.797   105407     N    0    0    0
    4:53.631   105707     N    0    0    0
    4:54.486   106015     N    0    0    0
    4:55.317   106314     N    0    0    0
    4:56.111   106600     N    0    0    0
    4:56.894   106882     N    0    0    0
    4:57.664   107159     N    0    0    0
    4:58.481   107453     N    0    0    0
    4:59.306   107750     N    0    0    0
    5:00.125   108045     N    0    0    0
    5:00.950   108342     N    0    0    0
    5:01.786   108643     N    0    0    0
    5:02.572   108926     N    0    0    0
    5:03.331   109199     N    0    0    0
    5:04.128   109486     N    0    0    0
    5:04.922   109772     N    0    0    0
    5:05.767   110076     N    0    0    0
    5:06.594   110374     N    0    0    0
    5:07.425   110673     N    0    0    0
    5:08.231   110963     N    0    0    0
    5:09.011   111244     N    0    0    0
    5:09.789   111524     N    0    0    0
    5:10.583   111810     N    0    0    0
    5:11.411   112108     N    0    0    0
    5:12.236   112405     N    0    0    0
    5:13.083   112710     N    0    0    0
    5:13.889   113000     N    0    0    0
    5:14.669   113281     N    0    0    0
    5:15.450   113562     N    0    0    0
    5:16.250   113850     N    0    0    0
    5:17.061   114142     N    0    0    0
    5:17.856   114428     N    0    0    0
    5:18.656   114716     N    0    0    0
    5:19.444   115000     N    0    0    0
    5:20.222   115280     N    0    0    0
    5:20.964   115547     N    0    0    0
    5:21.708   115815     N    0    0    0
    5:22.456   116084     N    0    0    0
    5:23.247   116369     N    0    0    0
    5:24.039   116654     N    0    0    0
    5:24.831   116939     N    0    0    0
    5:25.592   117213     N    0    0    0
    5:26.372   117494     N    0    0    0
    5:27.128   117766     N    0    0    0
    5:27.900   118044     N    0    0    0
    5:28.675   118323     N    0    0    0
    5:29.464   118607     N    0    0    0
    5:30.308   118911     N    0    0    0
    5:31.153   119215     N    0    0    0
    5:31.969   119509     N    0    0    0
    5:32.753   119791     N    0    0    0
    5:33.547   120077     N    0    0    0
    5:34.378   120376     N    0    0    0
    5:35.211   120676     N    0    0    0
    5:36.083   120990     N    0    0    0
    5:36.944   121300     N    0    0    0
    5:37.789   121604     N    0    0    0
    5:38.581   121889     N    0    0    0
    5:39.361   122170     N    0    0    0
    5:40.167   122460     N    0    0    0
    5:40.972   122750     N    0    0    0
    5:41.806   123050     N    0    0    0
    5:42.667   123360     N    0    0    0
    5:43.511   123664     N    0    0    0
    5:44.267   123936     N    0    0    0
    5:45.058   124221     N    0    0    0
    5:45.853 $ 124507    $N    0    0    0
    5:46.597   124775     N    0    0    0
    5:47.389   125060     N    0    0    0
    5:48.208   125355     N    0    0    0
    5:49.022   125648     N    0    0    0
    5:49.794   125926     N    0    0    0
    5:50.564   126203     N    0    0    0
    5:51.322   126476     N    0    0    0
    5:52.072   126746     N    0    0    0
    5:52.847   127025     N    0    0    0
    5:53.647   127313     N    0    0    0
    5:54.453   127603     N    0    0    0
    5:55.256   127892     N    0    0    0
    5:55.792   128085     A    0    0    0
    5:56.731   128423     N    0    0    0
    5:57.494   128698     N    0    0    0
    5:58.217   128958     N    0    0    0
    5:58.972   129230     N    0    0    0
    5:59.775   129519     N    0    0    0
    6:00.550   129798     N    0    0    0
    6:01.269   130057     N    0    0    0
    6:01.994   130318     N    0    0    0
    6:02.689   130568     N    0    0    0
    6:03.383   130818     N    0    0    0
    6:04.092   131073     N    0    0    0
    6:04.794   131326     N    0    0    0
    6:05.511   131584     N    0    0    0
    6:06.253   131851     N    0    0    0
    6:07.006   132122     N    0    0    0
    6:07.725   132381     N    0    0    0
    6:08.414   132629     N    0    0    0
    6:09.119   132883     N    0    0    0
    6:09.811   133132     N    0    0    0
    6:10.528   133390     N    0    0    0
    6:11.283   133662     N    0    0    0
    6:12.036   133933     N    0    0    0
    6:12.769   134197     N    0    0    0
    6:13.508   134463     N    0    0    0
    6:14.269   134737     N    0    0    0
    6:14.972   134990     N    0    0    0
    6:15.675   135243     N    0    0    0
    6:16.400   135504     N    0    0    0
    6:17.167   135780     N    0    0    0
    6:17.947   136061     N    0    0    0
    6:18.750   136350     N    0    0    0
    6:19.528   136630     N    0    0    0
    6:20.275   136899     N    0    0    0
    6:21.028   137170     N    0    0    0
    6:21.803   137449     N    0    0    0
    6:22.581   137729     N    0    0    0
    6:23.356   138008     N    0    0    0
    6:24.178   138304     N    0    0    0
    6:24.994   138598     N    0    0    0
    6:25.800   138888     N    0    0    0
    6:26.567   139164     N    0    0    0
    6:27.333   139440     N    0    0    0
    6:28.108   139719     N    0    0    0
    6:28.914   140009     N    0    0    0
    6:29.728   140302     N    0    0    0
    6:30.553   140599     N    0    0    0
    6:31.336   140881     N    0    0    0
    6:32.089   141152     N    0    0    0
    6:32.842   141423     N    0    0    0
    6:33.567   141684     N    0    0    0
    6:34.286   141943     N    0    0    0
    6:35.019   142207     N    0    0    0
    6:35.775   142479     N    0    0    0
    6:36.519   142747     N    0    0    0
    6:37.250   143010     N    0    0    0
    6:37.958   143265     N    0    0    0
    6:38.653   143515     N    0    0    0
    6:39.350   143766     N    0    0    0
    6:40.069   144025     N    0    0    0
    6:40.794   144286     N    0    0    0
    6:41.547   144557     N    0    0    0
    6:42.311   144832     N    0    0    0
    6:43.086   145111     N    0    0    0
    6:43.836   145381     N    0    0    0
    6:44.575   145647     N    0    0    0
    6:45.283   145902     N    0    0    0
    6:46.028   146170     N    0    0    0
    6:46.792   146445     N    0    0    0
    6:47.603   146737     N    0    0    0
    6:48.369   147013     N    0    0    0
    6:49.139   147290     N    0    0    0
    6:49.903   147565     N    0    0    0
    6:50.644   147832     N    0    0    0
    6:51.386   148099     N    0    0    0
    6:52.119   148363     N    0    0    0
    6:52.881   148637     N    0    0    0
    6:53.656   148916     N    0    0    0
    6:54.456   149204     N    0    0    0
    6:55.244   149488     N    0    0    0
    6:56.022 $ 149768     N  $ 0    0    0
    6:56.750   150030     N    0    0    0
    6:57.508   150303     N    0    0    0
    6:58.264   150575     N    0    0    0
    6:59.025   150849     N    0    0    0
    6:59.783   151122     N    0    0    0
    7:00.575   151407     N    0    0    0
    7:01.389   151700     N    0    0    0
    7:02.150   151974     N    0    0    0
    7:02.881   152237     N    0    0    0
    7:03.639   152510     N    0    0    0
    7:04.392   152781     N    0    0    0
    7:05.186   153067     N    0    0    0
    7:06.006   153362     N    0    0    0
    7:06.789   153644     N    0    0    0
    7:07.561   153922     N    0    0    0
    7:08.314   154193     N    0    0    0
    7:09.083   154470     N    0    0    0
    7:09.836   154741     N    0    0    0
    7:10.581   155009     N    0    0    0
    7:11.364   155291     N    0    0    0
    7:12.189   155588     N    0    0    0
    7:12.958   155865     N    0    0    0
    7:13.700   156132     N    0    0    0
    7:14.431   156395     N    0    0    0
    7:15.133   156648     N    0    0    0
    7:15.850   156906     N    0    0    0
    7:16.578   157168     N    0    0    0
    7:17.306   157430     N    0    0    0
    7:18.042   157695     N    0    0    0
    7:18.778   157960     N    0    0    0
    7:19.536   158233     N    0    0    0
    7:20.247   158489     N    0    0    0
    7:20.917   158730     N    0    0    0
    7:21.594   158974     N    0    0    0
    7:22.292   159225     N    0    0    0
    7:22.997   159479     N    0    0    0
    7:23.717   159738     N    0    0    0
    7:24.447   160001     N    0    0    0
    7:25.167   160260     N    0    0    0
    7:25.853   160507     N    0    0    0
    7:26.542   160755     N    0    0    0
    7:27.236   161005     N    0    0    0
    7:27.928   161254     N    0    0    0
    7:28.608   161499     N    0    0    0
    7:29.344   161764     N    0    0    0
    7:30.097   162035     N    0    0    0
    7:30.856   162308     N    0    0    0
    7:31.592   162573     N    0    0    0
    7:32.319   162835     N    0    0    0
    7:33.036   163093     N    0    0    0
    7:33.783   163362     N    0    0    0
    7:34.525   163629     N    0    0    0
    7:35.275   163899     N    0    0    0
    7:36.061   164182     N    0    0    0
    7:36.836   164461     N    0    0    0
    7:37.586   164731     N    0    0    0
    7:38.308   164991     N    0    0    0
    7:39.017   165246     N    0    0    0
    7:39.719   165499     N    0    0    0
    7:40.433   165756     N    0    0    0
    7:41.200   166032     N    0    0    0
    7:41.947   166301     N    0    0    0
    7:42.694   166570     N    0    0    0
    7:43.447   166841     N    0    0    0
    7:44.197   167111     N    0    0    0
    7:44.919   167371     N    0    0    0
    7:45.669   167641     N    0    0    0
    7:46.422   167912     N    0    0    0
    7:47.197   168191     N    0    0    0
    7:48.011   168484     N    0    0    0
    7:48.844   168784     N    0    0    0
    7:49.650   169074     N    0    0    0
    7:50.414   169349     N    0    0    0
    7:51.192   169629     N    0    0    0
    7:51.964   169907     N    0    0    0
    7:52.781   170201     N    0    0    0
    7:53.597   170495     N    0    0    0
    7:54.219   170719     A    0    0    0
    7:55.206   171074     N    0    0    0
    7:56.031   171371     N    0    0    0
    7:56.811   171652     N    0    0    0
    7:57.558   171921     N    0    0    0
    7:58.331   172199     N    0    0    0
    7:59.114   172481     N    0    0    0
    7:59.933   172776     N    0    0    0
    8:00.742   173067     N    0    0    0
    8:01.531   173351     N    0    0    0
    8:02.303   173629     N    0    0    0
    8:03.075   173907     N    0    0    0
    8:03.822   174176     N    0    0    0
    8:04.586   174451     N    0    0    0
    8:05.381   174737     N    0    0    0
    8:06.175   175023$    N    0 $  0    0
    8:07.008   175323     N    0    0    0
    8:07.800   175608     N    0    0    0
    8:08.547   175877     N    0    0    0
    8:09.292   176145     N    0    0    0
    8:10.075   176427     N    0    0    0
    8:10.828   176698     N    0    0    0
    8:11.597   176975     N    0    0    0
    8:12.356   177248     N    0    0    0
    8:13.119   177523     N    0    0    0
    8:13.881   177797     N    0    0    0
    8:14.608   178059     N    0    0    0
    8:15.322   178316     N    0    0    0
    8:16.050   178578     N    0    0    0
    8:16.781   178841     N    0    0    0
    8:17.547   179117     N    0    0    0
    8:18.300   179388     N    0    0    0
    8:19.061   179662     N    0    0    0
    8:19.797   179927     N    0    0    0
    8:20.506   180182     N    0    0    0
    8:21.231   180443     N    0    0    0
    8:21.958   180705     N    0    0    0
    8:22.678   180964     N    0    0    0
    8:23.433   181236     N    0    0    0
    8:24.231   181523     N    0    0    0
    8:25.031   181811     N    0    0    0
    8:25.789   182084     N    0    0    0
    8:26.536   182353     N    0    0    0
    8:27.289   182624     N    0    0    0
    8:28.044   182896     N    0    0    0
    8:28.836   183181     N    0    0    0
    8:29.653   183475     N    0    0    0
    8:30.494   183778     N    0    0    0
    8:31.308   184071     N    0    0    0
    8:32.114   184361     N    0    0    0
    8:32.914   184649     N    0    0    0
    8:33.703   184933     N    0    0    0
    8:34.481   185213     N    0    0    0
    8:35.306   185510     N    0    0    0
    8:36.189   185828     N    0    0    0
    8:37.047   186137     N    0    0    0
    8:37.856   186428     N    0    0    0
    8:38.658   186717     N    0    0    0
    8:39.458   187005     N    0    0    0
    8:40.253   187291     N    0    0    0
    8:41.047   187577     N    0    0    0
    8:41.867   187872     N    0    0    0
    8:42.719   188179     N    0    0    0
    8:43.558   188481     N    0    0    0
    8:44.342   188763     N    0    0    0
    8:45.119   189043     N    0    0    0
    8:45.917   189330     N    0    0    0
    8:46.733   189624     N    0    0    0
    8:47.581   189929     N    0    0    0
    8:48.411   190228     N    0    0    0
    8:49.247   190529     N    0    0    0
    8:50.056   190820     N    0    0    0
    8:50.867   191112     N    0    0    0
    8:51.653   191395     N    0    0    0
    8:52.428   191674     N    0    0    0
    8:53.269   191977     N    0    0    0
    8:54.114   192281     N    0    0    0
    8:54.931   192575     N    0    0    0
    8:55.728   192862     N    0    0    0
    8:56.517   193146     N    0    0    0
    8:57.286   193423     N    0    0    0
    8:58.064   193703     N    0    0    0
    8:58.872   193994     N    0    0    0
    8:59.669   194281     N    0    0    0
    9:00.483   194574     N    0    0    0
    9:01.300   194868     N    0    0    0
    9:02.100   195156     N    0    0    0
    9:02.850   195426     N    0    0    0
    9:03.614   195701     N    0    0    0
    9:04.383   195978     N    0    0    0
    9:05.189   196268     N    0    0    0
    9:06.000   196560     N    0    0    0
    9:06.797   196847     N    0    0    0
    9:07.589   197132     N    0    0    0
    9:08.372   197414     N    0    0    0
    9:09.125   197685     N    0    0    0
    9:09.861   197950     N    0    0    0
    9:10.622   198224     N    0    0    0
    9:11.400   198504     N    0    0    0
    9:12.197   198791     N    0    0    0
    9:12.986   199075     N    0    0    0
    9:13.758   199353     N    0    0    0
    9:14.497   199619     N    0    0    0
    9:15.261   199894     N    0    0    0
    9:16.003   200161     N    0    0    0
    9:16.761   200434     N    0    0    0
    9:17.539   200714     N    0    0    0
    9:18.314   200993     N    0    0    0
    9:19.086   201271$   $N    0    0$   0
    9:19.847   201545     N    0    0    0
    9:20.572   201806     N    0    0    0
    9:21.297   202067     N    0    0    0
    9:22.053   202339     N    0    0    0
    9:22.817   202614     N    0    0    0
    9:23.600   202896     N    0    0    0
    9:24.394   203182     N    0    0    0
    9:25.189   203468     N    0    0    0
    9:25.947   203741     N    0    0    0
    9:26.725   204021     N    0    0    0
    9:27.497   204299     N    0    0    0
    9:28.261   204574     N    0    0    0
    9:29.039   204854     N    0    0    0
    9:29.883   205158     N    0    0    0
    9:30.719   205459     N    0    0    0
    9:31.492   205737     N    0    0    0
    9:32.267   206016     N    0    0    0
    9:33.022   206288     N    0    0    0
    9:33.797   206567     N    0    0    0
    9:34.567   206844     N    0    0    0
    9:35.361   207130     N    0    0    0
    9:36.169   207421     N    0    0    0
    9:37.011   207724     N    0    0    0
    9:37.789   208004     N    0    0    0
    9:38.547   208277     N    0    0    0
    9:39.300   208548     N    0    0    0
    9:40.061   208822     N    0    0    0
    9:40.833   209100     N    0    0    0
    9:41.644   209392     N    0    0    0
    9:42.453   209683     N    0    0    0
    9:43.258   209973     N    0    0    0
    9:44.044   210256     N    0    0    0
    9:44.817   210534     N    0    0    0
    9:45.581   210809     N    0    0    0
    9:46.347   211085     N    0    0    0
    9:47.122   211364     N    0    0    0
    9:47.928   211654     N    0    0    0
    9:48.753   211951     N    0    0    0
    9:49.522   212228     N    0    0    0
    9:50.283   212502     N    0    0    0
    9:51.047   212777     N    0    0    0
    9:51.828   213058     N    0    0    0
    9:52.572   213326     N    0    0    0
    9:53.350   213606     N    0    0    0
    9:54.150   213894     N    0    0    0
    9:54.947   214181     N    0    0    0
    9:55.736   214465     N    0    0    0
    9:56.494   214738     N    0    0    0
    9:57.236   215005     N    0    0    0
    9:58.000   215280     N    0    0    0
    9:58.786   215563     N    0    0    0
    9:59.583   215850     N    0    0    0
   10:00.392   216141     N    0    0    0
   10:01.197   216431     N    0    0    0
   10:01.972   216710     N    0    0    0
   10:02.750   216990     N    0    0    0
   10:03.522   217268     N    0    0    0
   10:04.297   217547     N    0    0    0
   10:05.067   217824     N    0    0    0
   10:05.894   218122     N    0    0    0
   10:06.711   218416     N    0    0    0
   10:07.508   218703     N    0    0    0
   10:08.256   218972     N    0    0    0
   10:09.017   219246     N    0    0    0
   10:09.803   219529     N    0    0    0
   10:10.592   219813     N    0    0    0
   10:11.383   220098     N    0    0    0
   10:12.197   220391     N    0    0    0
   10:13.031   220691     N    0    0    0
   10:13.825   220977     N    0    0    0
   10:14.589   221252     N    0    0    0
   10:15.353   221527     N    0    0    0
   10:16.122   221804     N    0    0    0
   10:16.892   222081     N    0    0    0
   10:17.708   222375     N    0    0    0
   10:18.517   222666     N    0    0    0
   10:19.308   222951     N    0    0    0
   10:20.075   223227     N    0    0    0
   10:20.853   223507     N    0    0    0
   10:21.619   223783     N    0    0    0
   10:22.353   224047     N    0    0    0
   10:23.133   224328     N    0    0    0
   10:23.947   224621     N    0    0    0
   10:24.764   224915     N    0    0    0
   10:25.542   225195     N    0    0    0
   10:26.311   225472     N    0    0    0
   10:27.064   225743     N    0    0    0
   10:27.844   226024     N    0    0    0
   10:28.600   226296     N    0    0    0
   10:29.369   226573     N    0    0    0
   10:30.175   226863     N    0    0    0
   10:30.956   227144     N    0    0    0
   10:31.742   227427    $N  $ 0    0    4
   10:32.506   227702     N    0    0    0
   10:33.264   227975     N    0    0    0
   10:33.994   228238     N    0    0    0
   10:34.767   228516     N    0    0    0
   10:35.578   228808     N    0    0    0
   10:36.372   229094     N    0    0    0
   10:37.156   229376     N    0    0    0
   10:37.944   229660     N    0    0    0
   10:38.711   229936     N    0    0    0
   10:39.483   230214     N    0    0    0
   10:40.236   230485     N    0    0    0
   10:41.003   230761     N    0    0    0
   10:41.828   231058     N    0    0    0
   10:42.658   231357     N    0    0    0
   10:43.439   231638     N    0    0    0
   10:44.203   231913     N    0    0    0
   10:44.972   232190     N    0    0    0
   10:45.719   232459     N    0    0    0
   10:46.478   232732     N    0    0    0
   10:47.267   233016     N    0    0    0
   10:48.058   233301     N    0    0    0
   10:48.856   233588     N    0    0    0
   10:49.653   233875     N    0    0    0
   10:50.419   234151     N    0    0    0
   10:51.153   234415     N    0    0    0
   10:51.900   234684     N    0    0    0
   10:52.664   234959     N    0    0    0
   10:53.469   235249     N    0    0    0
   10:54.297   235547     N    0    0    0
   10:55.078   235828     N    0    0    0
   10:55.856   236108     N    0    0    0
   10:56.639   236390     N    0    0    0
   10:57.400   236664     N    0    0    0
   10:58.131   236927     N    0    0    0
   10:58.903   237205     N    0    0    0
   10:59.708   237495     N    0    0    0
   11:00.508   237783     N    0    0    0
   11:01.306   238070     N    0    0    0
   11:02.064   238343     N    0    0    0
   11:02.806   238610     N    0    0    0
   11:03.567   238884     N    0    0    0
   11:04.325   239157     N    0    0    0
   11:05.092   239433     N    0    0    0
   11:05.881   239717     N    0    0    0
   11:06.656   239996     N    0    0    0
   11:07.406   240266     N    0    0    0
   11:08.569   240541$    N    0    0    0
   11:08.914   240809     N    0    0    0
   11:09.625   241065     N    0    0    0
   11:10.328   241318     N    0    0    0
   11:11.078   241588     N    0    0    0
   11:11.819   241855     N    0    0    0
   11:12.539   242114     N    0    0    0
   11:13.258   242373     N    0    0    0
   11:13.978   242632     N    0    0    0
   11:14.664   242879     N    0    0    0
   11:15.367   243132     N    0    0    0
   11:16.078   243388     N    0    0    0
   11:16.786   243643     N    0    0    0
   11:17.522   243908     N    0    0    0
   11:18.308   244191     N    0    0    0
   11:19.058   244461     N    0    0    0
   11:19.803   244729     N    0    0    0
   11:20.511   244984     N    0    0    0
   11:21.239   245246     N    0    0    0
   11:21.986   245515     N    0    0    0
   11:22.753   245791     N    0    0    0
   11:23.514   246065     N    0    0    0
   11:24.311   246352     N    0    0    0
   11:25.131   246647     N    0    0    0
   11:25.931   246935     N    0    0    0
   11:26.669   247201     N    0    0    0
   11:27.414   247469     N    0    0    0
   11:28.172   247742     N    0    0    0
   11:28.936   248017     N    0    0    0
   11:29.722   248300     N    0    0    0
   11:30.517   248586     N    0    0    0
   11:31.328   248878     N    0    0    0
   11:32.106   249158     N    0    0    0
   11:32.869   249433     N    0    0    0
   11:33.628   249706     N    0    0    0
   11:34.411   249988     N    0    0    0
   11:35.203   250273     N    0    0    0
   11:35.994   250558     N    0    0    0
   11:36.828   250858     N    0    0    0
   11:37.667   251160     N    0    0    0
   11:38.447   251441     N    0    0    0
   11:39.194   251710     N    0    0    0
   11:39.983   251994     N    0    0    0
   11:40.792   252285     N    0    0    0
   11:41.622   252584     N    0    0    0
   11:42.411   252868     N    0    0    0
   11:43.219   253159     N    0    0    0
   11:44.044   253456     N    0    0    0
   11:44.836   253741     N    0    0    0
   11:45.583   254010     N    0    0    0
   11:46.339   254282     N    0    0    0
   11:47.181   254585     N    0    0    0
   11:48.031   254891     N    0    0    0
   11:48.806   255170     N    0    0    0
   11:49.592   255453     N    0    0    0
   11:50.383   255738     N    0    0    0
   11:51.186   256027     N    0    0    0
   11:51.931   256295     N    0    0    0
   11:52.700   256572     N    0    0    0
   11:53.500   256860     N    0    0    0
   11:54.325   257157     N    0    0    0
   11:55.108   257439     N    0    0    0
   11:55.861   257710     N    0    0    0
   11:56.572   257966     N    0    0    0
   11:57.294   258226     N    0    0    0
   11:57.994   258478     N    0    0    0
   11:58.714   258737     N    0    0    0
   11:59.458   259005     N    0    0    0
   12:00.222   259280     N    0    0    0
   12:00.947   259541     N    0    0    0
   12:01.697   259811     N    0    0    0
   12:02.433   260076     N    0    0    0
   12:03.150   260334     N    0    0    0
   12:03.847   260585     N    0    0    0
   12:04.589   260852     N    0    0    0
   12:05.367   261132     N    0    0    0
   12:06.158   261417     N    0    0    0
   12:06.917   261690     N    0    0    0
   12:07.689   261968     N    0    0    0
   12:08.447   262241     N    0    0    0
   12:09.211   262516     N    0    0    0
   12:09.969   262789     N    0    0    0
   12:10.728   263062     N    0    0    0
   12:11.528   263350     N    0    0    0
   12:12.336   263641     N    0    0    0
   12:13.142   263931     N    0    0    0
   12:13.936   264217     N    0    0    0
   12:14.719   264499     N    0    0    0
   12:15.478   264772     N    0    0    0
   12:16.283   265062     N    0    0    0
   12:17.094   265354     N    0    0    0
   12:17.919   265651     N    0    0    0
   12:18.742   265947     N    0    0    0
   12:19.550 $ 266238    $N    0    0    0
   12:20.356   266528     N    0    0    0
   12:21.153   266815     N    0    0    0
   12:21.942   267099     N    0    0    0
   12:22.708   267375     N    0    0    0
   12:23.553   267679     N    0    0    0
   12:24.383   267978     N    0    0    0
   12:25.167   268260     N    0    0    0
   12:25.956   268544     N    0    0    0
   12:26.731   268823     N    0    0    0
   12:27.506   269102     N    0    0    0
   12:28.289   269384     N    0    0    0
   12:29.081   269669     N    0    0    0
   12:29.889   269960     N    0    0    0
   12:30.714   270257     N    0    0    0
   12:31.528   270550     N    0    0    0
   12:32.281   270821     N    0    0    0
   12:33.039   271094     N    0    0    0
   12:33.806   271370     N    0    0    0
   12:34.600   271656     N    0    0    0
   12:35.422   271952     N    0    0    0
   12:36.233   272244     N    0    0    0
   12:37.036   272533     N    0    0    0
   12:37.886   272839     N    0    0    0
   12:38.675   273123     N    0    0    0
   12:39.428   273394     N    0    0    0
   12:40.208   273675     N    0    0    0
   12:41.019   273967     N    0    0    0
   12:41.844   274264     N    0    0    0
   12:42.667   274560     N    0    0    0
   12:43.478   274852     N    0    0    0
   12:44.253   275131     N    0    0    0
   12:45.008   275403     N    0    0    0
   12:45.753   275671     N    0    0    0
   12:46.525   275949     N    0    0    0
   12:47.319   276235     N    0    0    0
   12:48.100   276516     N    0    0    0
   12:48.900   276804     N    0    0    0
   12:49.728   277102     N    0    0    0
   12:50.522   277388     N    0    0    0
   12:51.247   277649     N    0    0    0
   12:52.008   277923     N    0    0    0
   12:52.808   278211     N    0    0    0
   12:53.661   278518     N    0    0    0
   12:54.483   278814     N    0    0    0
   12:55.272   279098     N    0    0    0
   12:56.061   279382     N    0    0    0
   12:56.600   279576     A    0    0    0
   12:57.550   279918     N    0    0    0
   12:58.358   280209     N    0    0    0
   12:59.197   280511     N    0    0    0
   13:00.039   280814     N    0    0    0
   13:00.861   281110     N    0    0    0
   13:01.672   281402     N    0    0    0
   13:02.450   281682     N    0    0    0
   13:03.208   281955     N    0    0    0
   13:03.978   282232     N    0    0    0
   13:04.758   282513     N    0    0    0
   13:05.558   282801     N    0    0    0
   13:06.378   283096     N    0    0    0
   13:07.192   283389     N    0    0    0
   13:07.978   283672     N    0    0    0
   13:08.733   283944     N    0    0    0
   13:09.489   284216     N    0    0    0
   13:10.253   284491     N    0    0    0
   13:11.050   284778     N    0    0    0
   13:11.869   285073     N    0    0    0
   13:12.675   285363     N    0    0    0
   13:13.481   285653     N    0    0    0
   13:14.267   285936     N    0    0    0
   13:15.028   286210     N    0    0    0
   13:15.794   286486     N    0    0    0
   13:16.564   286763     N    0    0    0
   13:17.364   287051     N    0    0    0
   13:18.203   287353     N    0    0    0
   13:19.042   287655     N    0    0    0
   13:19.844   287944     N    0    0    0
   13:20.625   288225     N    0    0    0
   13:21.406   288506     N    0    0    0
   13:22.200   288792     N    0    0    0
   13:22.989   289076     N    0    0    0
   13:23.814   289373     N    0    0    0
   13:24.631   289667     N    0    0    0
   13:25.475   289971     N    0    0    0
   13:26.269   290257     N    0    0    0
   13:27.050   290538     N    0    0    0
   13:27.814   290813     N    0    0    0
   13:28.636   291109     N    0    0    0
   13:29.464   291407     N    0    0    0
   13:30.267   291696     N    0    0    0
   13:31.083   291990     N    0    0    0
   13:31.892   292281     N    0    0    0
   13:32.683   292566     N    0    0    0
   13:33.456 $ 296844     N  $ 0    0    0
   13:34.231   293123     N    0    0    0
   13:35.031   293411     N    0    0    0
   13:35.867   293712     N    0    0    0
   13:36.697   294011     N    0    0    0
   13:37.489   294296     N    0    0    0
   13:38.281   294581     N    0    0    0
   13:39.047   294857     N    0    0    0
   13:39.839   295142     N    0    0    0
   13:40.614   295421     N    0    0    0
   13:41.436   295717     N    0    0    0
   13:42.258   296013     N    0    0    0
   13:43.108   296319     N    0    0    0
   13:43.919   296611     N    0    0    0
   13:44.692   296889     N    0    0    0
   13:45.469   297169     N    0    0    0
   13:46.250   297450     N    0    0    0
   13:47.050   297738     N    0    0    0
   13:47.867   298032     N    0    0    0
   13:48.706   298334     N    0    0    0
   13:49.519   298627     N    0    0    0
   13:50.333   298920     N    0    0    0
   13:51.128   299206     N    0    0    0
   13:51.897   299483     N    0    0    0
   13:52.656   299756     N    0    0    0
   13:53.475   300051     N    0    0    0
   13:54.333   300360     N    0    0    0
   13:55.172   300662     N    0    0    0
   13:55.944   300940     N    0    0    0
   13:56.694   301210     N    0    0    0
   13:57.483   301494     N    0    0    0
   13:58.281   301781     N    0    0    0
   13:59.064   302063     N    0    0    0
   13:59.853   302347     N    0    0    0
   14:00.678   302644     N    0    0    0
   14:01.519   302947     N    0    0    0
   14:02.333   303240     N    0    0    0
   14:03.064   303503     N    0    0    0
   14:03.814   303773     N    0    0    0
   14:04.625   304065     N    0    0    0
   14:05.447   304361     N    0    0    0
   14:06.219   304639     N    0    0    0
   14:07.008   304923     N    0    0    0
   14:07.808   305211     N    0    0    0
   14:08.603   305497     N    0    0    0
   14:09.192   305709     A    0    0    0
   14:10.097   306035     N    0    0    0
   14:10.936   306337     N    0    0    0
   14:11.781   306641     N    0    0    0
   14:12.619   306943     N    0    0    0
   14:13.428   307234     N    0    0    0
   14:14.206   307514     N    0    0    0
   14:14.847   307745     A    0    0    0
   14:15.728   308062     N    0    0    0
   14:16.525   308349     N    0    0    0
   14:17.292   308625     N    0    0    0
   14:18.089   308912     N    0    0    0
   14:18.933   309216     N    0    0    0
   14:19.764   309515     N    0    0    0
   14:20.500   309780     N    0    0    0
   14:21.256   310052     N    0    0    0
   14:22.033   310332     N    0    0    0
   14:22.850   310626     N    0    0    0
   14:23.650   310914     N    0    0    0
   14:24.442   311199     N    0    0    0
   14:25.244   311488     N    0    0    0
   14:26.064   311783     N    0    0    0
   14:26.839   312062     N    0    0    0
   14:27.575   312327     N    0    0    0
   14:28.347   312605     N    0    0    0
   14:28.958   312825     A    0    0    0
   14:29.981   313193     N    0    0    0
   14:30.856   313508     N    0    0    0
   14:31.689   313808     N    0    0    0
   14:32.472   314090     N    0    0    0
   14:33.258   314373     N    0    0    0
   14:34.067   314664     N    0    0    0
   14:34.867   314952     N    0    0    0
   14:35.681   315245     N    0    0    0
   14:36.503   315541     N    0    0    0
   14:37.342   315843     N    0    0    0
   14:38.156   316136     N    0    0    0
   14:38.931   316415     N    0    0    0
   14:39.703   316693     N    0    0    0
   14:40.500   316980     N    0    0    0
   14:41.294   317266     N    0    0    0
   14:42.111   317560     N    0    0    0
   14:42.736   317785     A    0    0    0
   14:43.736   318145     N    0    0    0
   14:44.550   318438     N    0    0    0
   14:45.358   318729     N    0    0    0
   14:46.142   319011     N    0    0    0
   14:46.731   319223     A    0    0    0
   14:47.739   319586$    N    0 $  0    0
   14:48.622   319904     N    0    0    0
   14:49.458   320205     N    0    0    0
   14:50.258   320493     N    0    0    0
   14:51.072   320786     N    0    0    0
   14:51.867   321072     N    0    0    0
   14:52.697   321371     N    0    0    0
   14:53.508   321663     N    0    0    0
   14:54.356   321968     N    0    0    0
   14:55.208   322275     N    0    0    0
   14:56.036   322573     N    0    0    0
   14:56.822   322856     N    0    0    0
   14:57.606   323138     N    0    0    0
   14:58.403   323425     N    0    0    0
   14:59.250   323730     N    0    0    0
   15:00.122   324044     N    0    0    0
   15:00.944   324340     N    0    0    0
   15:01.781   324641     N    0    0    0
   15:02.581   324929     N    0    0    0
   15:03.375   325215     N    0    0    0
   15:04.153   325495     N    0    0    0
   15:04.950   325782     N    0    0    0
   15:05.800   326088     N    0    0    0
   15:06.653   326395     N    0    0    0
   15:07.494   326698     N    0    0    0
   15:08.294   326986     N    0    0    0
   15:09.100   327276     N    0    0    0
   15:09.906   327566     N    0    0    0
   15:10.717   327858     N    0    0    0
   15:11.525   328149     N    0    0    0
   15:12.367   328452     N    0    0    0
   15:13.203   328753     N    0    0    0
   15:14.044   329056     N    0    0    0
   15:14.831   329339     N    0    0    0
   15:15.608   329619     N    0    0    0
   15:16.422   329912     N    0    0    0
   15:17.267   330216     N    0    0    0
   15:18.122   330524     N    0    0    0
   15:18.942   330819     N    0    0    0
   15:19.789   331124     N    0    0    0
   15:20.586   331411     N    0    0    0
   15:21.400   331704     N    0    0    0
   15:22.192   331989     N    0    0    0
   15:22.997   332279     N    0    0    0
   15:23.856   332588     N    0    0    0
   15:24.714   332897     N    0    0    0
   15:25.553   333199     N    0    0    0
   15:26.331   333479     N    0    0    0
   15:27.133   333768     N    0    0    0
   15:27.933   334056     N    0    0    0
   15:28.744   334348     N    0    0    0
   15:29.564   334643     N    0    0    0
   15:30.397   334943     N    0    0    0
   15:31.244   335248     N    0    0    0
   15:32.064   335543     N    0    0    0
   15:32.842   335823     N    0    0    0
   15:33.611   336100     N    0    0    0
   15:34.403   336385     N    0    0    0
   15:35.219   336679     N    0    0    0
   15:36.053   336979     N    0    0    0
   15:36.892   337281     N    0    0    0
   15:37.697   337571     N    0    0    0
   15:38.506   337862     N    0    0    0
   15:39.292   338145     N    0    0    0
   15:40.089   338432     N    0    0    0
   15:40.889   338720     N    0    0    0
   15:41.736   339025     N    0    0    0
   15:42.575   339327     N    0    0    0
   15:43.428   339634     N    0    0    0
   15:44.239   339926     N    0    0    0
   15:45.014   340205     N    0    0    0
   15:45.811   340492     N    0    0    0
   15:46.611   340780     N    0    0    0
   15:47.431   341075     N    0    0    0
   15:48.275   341379     N    0    0    0
   15:49.122   341684     N    0    0    0
   15:49.928   341974     N    0    0    0
   15:50.739   342266     N    0    0    0
   15:51.519   342547     N    0    0    0
   15:52.283   342822     N    0    0    0
   15:53.097   343115     N    0    0    0
   15:53.914   343409     N    0    0    0
   15:54.736   343705     N    0    0    0
   15:55.542   343995     N    0    0    0
   15:56.331   344279     N    0    0    0
   15:57.100   344556     N    0    0    0
   15:57.897   344843     N    0    0    0
   15:58.692   345129     N    0    0    0
   15:59.486   345415     N    0    0    0
   16:00.339   345722     N    0    0    0
   16:01.158   346017     N    0    0    0
   16:01.967   346308     N    0    0    0
   16:02.767   346596     N    0    0    0
   16:03.344   346804$   $A    0    0$   0
   16:04.297   347147     N    0    0    0
   16:05.150   347454     N    0    0    0
   16:05.997   347759     N    0    0    0
   16:06.842   348063     N    0    0    0
   16:07.686   348367     N    0    0    0
   16:08.494   348658     N    0    0    0
   16:09.261   348934     N    0    0    0
   16:10.058   349221     N    0    0    0
   16:10.839   349502     N    0    0    0
   16:11.678   349804     N    0    0    0
   16:12.533   350112     N    0    0    0
   16:13.361   350410     N    0    0    0
   16:14.144   350692     N    0    0    0
   16:14.944   350980     N    0    0    0
   16:15.736   351265     N    0    0    0
   16:16.336   351481     A    0    0    0
   16:17.281   351821     N    0    0    0
   16:18.097   352115     N    0    0    0
   16:18.933   352416     N    0    0    0
   16:19.753   352711     N    0    0    0
   16:20.517   352986     N    0    0    0
   16:21.269   353257     N    0    0    0
   16:22.075   353547     N    0    0    0
   16:22.867   353832     N    0    0    0
   16:23.689   354128     N    0    0    0
   16:24.517   354426     N    0    0    0
   16:25.325   354717     N    0    0    0
   16:26.153   355015     N    0    0    0
   16:26.950   355302     N    0    0    0
   16:27.719   355579     N    0    0    0
   16:28.494   355858     N    0    0    0
   16:29.347   356165     N    0    0    0
   16:30.175   356463     N    0    0    0
   16:30.994   356758     N    0    0    0
   16:31.792   357045     N    0    0    0
   16:32.575   357327     N    0    0    0
   16:33.361   357610     N    0    0    0
   16:34.167   357900     N    0    0    0
   16:34.961   358186     N    0    0    0
   16:35.783   358482     N    0    0    0
   16:36.633   358788     N    0    0    0
   16:37.461   359086     N    0    0    0
   16:38.236   359365     N    0    0    0
   16:38.983   359634     N    0    0    0
   16:39.731   359903     N    0    0    0
   16:40.506   360182     N    0    0    0
   16:41.308   360471     N    0    0    0
   16:42.119   360763     N    0    0    0
   16:42.919   361051     N    0    0    0
   16:43.731   361343     N    0    0    0
   16:44.514   361625     N    0    0    0
   16:45.261   361894     N    0    0    0
   16:46.006   362162     N    0    0    0
   16:46.808   362451     N    0    0    0
   16:47.589   362732     N    0    0    0
   16:48.406   363026     N    0    0    0
   16:49.217   363318     N    0    0    0
   16:50.017   363606     N    0    0    0
   16:50.772   363878     N    0    0    0
   16:51.550   364158     N    0    0    0
   16:52.350   364446     N    0    0    0
   16:53.139   364730     N    0    0    0
   16:53.950   365022     N    0    0    0
   16:54.806   365330     N    0    0    0
   16:55.667   365640     N    0    0    0
   16:56.428   365914     N    0    0    0
   16:57.197   366191     N    0    0    0
   16:58.006   366482     N    0    0    0
   16:58.828   366778     N    0    0    0
   16:59.619   367063     N    0    0    0
   17:00.453   367363     N    0    0    0
   17:01.317   367674     N    0    0    0
   17:02.111   367960     N    0    0    0
   17:02.908   368247     N    0    0    0
   17:03.697   368531     N    0    0    0
   17:04.511   368824     N    0    0    0
   17:05.303   369109     N    0    0    0
   17:06.139   369410     N    0    0    0
   17:06.983   369714     N    0    0    0
   17:07.806   370010     N    0    0    0
   17:08.553   370279     N    0    0    0
   17:09.325   370557     N    0    0    0
   17:10.117   370842     N    0    0    0
   17:10.919   371131     N    0    0    0
   17:11.683   371406     N    0    0    0
   17:12.508   371703     N    0    0    0
   17:13.353   372007     N    0    0    0
   17:14.164   372299     N    0    0    0
   17:14.881   372557     N    0    0    0
   17:15.650   372834     N    0    0    0
   17:16.453   373123     N    0    0    0
   17:17.300   373428     N    0    0    0
   17:18.089   373712    $N  $ 0    0    4
   17:18.889   374000     N    0    0    0
   17:19.731   374303     N    0    0    0
   17:20.542   374595     N    0    0    0
   17:21.264   374855     N    0    0    0
   17:22.011   375124     N    0    0    0
   17:22.811   375412     N    0    0    0
   17:23.653   375715     N    0    0    0
   17:24.439   375998     N    0    0    0
   17:25.242   376287     N    0    0    0
   17:26.044   376576     N    0    0    0
   17:26.836   376861     N    0    0    0
   17:27.447   377081     A    0    0    0
   17:28.344   377404     N    0    0    0
   17:29.167   377700     N    0    0    0
   17:30.014   378005     N    0    0    0
   17:30.856   378308     N    0    0    0
   17:31.689   378608     N    0    0    0
   17:32.461   378886     N    0    0    0
   17:33.219   379159     N    0    0    0
   17:33.997   379439     N    0    0    0
   17:34.808   379731     N    0    0    0
   17:35.619   380023     N    0    0    0
   17:36.422   380312     N    0    0    0
   17:37.250   380610     N    0    0    0
   17:38.050   380898     N    0    0    0
   17:38.814   381173     N    0    0    0
   17:39.589   381452     N    0    0    0
   17:40.344   381724     N    0    0    0
   17:41.150   382014     N    0    0    0
   17:41.967   382308     N    0    0    0
   17:42.797   382607     N    0    0    0
   17:43.597   382895     N    0    0    0
   17:44.397   383183     N    0    0    0
   17:45.158   383457     N    0    0    0
   17:45.953   383743     N    0    0    0
   17:46.742   384027     N    0    0    0
   17:47.547   384317     N    0    0    0
   17:48.372   384614     N    0    0    0
   17:49.208   384915     N    0    0    0
   17:50.014   385205     N    0    0    0
   17:50.797   385487     N    0    0    0
   17:51.578   385768     N    0    0    0
   17:52.361   386050     N    0    0    0
   17:53.192   386349     N    0    0    0
   17:54.025   386649     N    0    0    0
   17:54.836   386941     N    0    0    0
   17:55.669   387241     N    0    0    0
   17:56.481   387533     N    0    0    0
   17:57.253   387811     N    0    0    0
   17:58.011   388084     N    0    0    0
   17:58.814   388373     N    0    0    0
   17:59.642   388671     N    0    0    0
   18:00.497   388979     N    0    0    0
   18:01.325   389277     N    0    0    0
   18:02.119   389563     N    0    0    0
   18:02.944   389860     N    0    0    0
   18:03.747   390149     N    0    0    0
   18:04.539   390434     N    0    0    0
   18:05.361   390730     N    0    0    0
   18:06.219   391039     N    0    0    0
   18:07.067   391344     N    0    0    0
   18:07.892   391641     N    0    0    0
   18:08.678   391924     N    0    0    0
   18:09.456   392204     N    0    0    0
   18:10.258   392493     N    0    0    0
   18:11.056   392780     N    0    0    0
   18:11.881   393077     N    0    0    0
   18:12.714   393377     N    0    0    0
   18:13.539   393674     N    0    0    0
   18:14.325   393957     N    0    0    0
   18:15.119   394243     N    0    0    0
   18:15.886   394519     N    0    0    0
   18:16.669   394801     N    0    0    0
   18:17.489   395096     N    0    0    0
   18:18.336   395401     N    0    0    0
   18:19.158   395697     N    0    0    0
   18:19.969   395989     N    0    0    0
   18:20.744   396268     N    0    0    0
   18:21.536   396553     N    0    0    0
   18:22.347   396845     N    0    0    0
   18:23.147   397133     N    0    0    0
   18:23.708   397335     A    0    0    0
   18:24.733   397704     N    0    0    0
   18:25.575   398007     N    0    0    0
   18:26.372   398294     N    0    0    0
   18:27.136   398569     N    0    0    0
   18:27.925   398853     N    0    0    0
   18:28.719   399139     N    0    0    0
   18:29.544   399436     N    0    0    0
   18:30.361   399730     N    0    0    0
   18:31.175   400023     N    0    0    0
   18:32.003   400321     N    0    0    0
   18:32.775   400599     N  $ 0 $  0    0
 $ 18:33.547   400877     N    0    0    0
   18:34.342   401163     N    0    0    0
   18:35.147   401453     N    0    0    0
   18:35.992   401757     N    0    0    0
   18:36.836   402061     N    0    0    0
   18:37.669   402361     N    0    0    0
   18:38.461   402646     N    0    0    0
   18:39.258   402933     N    0    0    0
   18:40.042   403215     N    0    0    0
   18:40.858   403509     N    0    0    0
   18:41.678   403804     N    0    0    0
   18:42.500   404100     N    0    0    0
   18:43.342   404403     N    0    0    0
   18:44.158   404697     N    0    0    0
   18:44.944   404980     N    0    0    0
   18:45.708   405255     N    0    0    0
   18:46.508   405543     N    0    0    0
   18:47.322   405836     N    0    0    0
   18:48.142   406131     N    0    0    0
   18:48.958   406425     N    0    0    0
   18:49.764   406715     N    0    0    0
   18:50.569   407005     N    0    0    0
   18:51.356   407288     N    0    0    0
   18:52.108   407559     N    0    0    0
   18:52.914   407849     N    0    0    0
   18:53.753   408151     N    0    0    0
   18:54.589   408452     N    0    0    0
   18:55.406   408746     N    0    0    0
   18:56.194   409030     N    0    0    0
   18:56.983   409314     N    0    0    0
   18:57.769   409597     N    0    0    0
   18:58.558   409881     N    0    0    0
   18:59.381   410177     N    0    0    0
   19:00.214   410477     N    0    0    0
   19:01.058   410781     N    0    0    0
   19:01.864   411071     N    0    0    0
   19:02.644   411352     N    0    0    0
   19:03.422   411632     N    0    0    0
   19:04.208   411915     N    0    0    0
   19:05.017   412206     N    0    0    0
   19:05.867   412512     N    0    0    0
   19:06.711   412816     N    0    0    0
   19:07.525   413109     N    0    0    0
   19:08.339   413402     N    0    0    0
   19:09.144   413692     N    0    0    0
   19:09.914   413969     N    0    0    0
   19:10.692   414249     N    0    0    0
   19:11.503   414541     N    0    0    0
   19:12.353   414847     N    0    0    0
   19:13.175   415143     N    0    0    0
   19:13.972   415430     N    0    0    0
   19:14.731   415703     N    0    0    0
   19:15.539   415994     N    0    0    0
   19:16.319   416275     N    0    0    0
   19:17.097   416555     N    0    0    0
   19:17.914   416849     N    0    0    0
   19:18.756   417152     N    0    0    0
   19:19.569   417445     N    0    0    0
   19:20.356   417728     N    0    0    0
   19:21.128   418006     N    0    0    0
   19:21.897   418283     N    0    0    0
   19:22.714   418577     N    0    0    0
   19:23.517   418866     N    0    0    0
   19:24.319   419155     N    0    0    0
   19:25.147   419453     N    0    0    0
   19:25.958   419745     N    0    0    0
   19:26.728   420022     N    0    0    0
   19:27.506   420302     N    0    0    0
   19:28.286   420583     N    0    0    0
   19:29.092   420873     N    0    0    0
   19:29.925   421173     N    0    0    0
   19:30.761   421474     N    0    0    0
   19:31.572   421766     N    0    0    0
   19:32.206   421994     A    0    0    0
   19:33.111   422320     N    0    0    0
   19:33.897   422603     N    0    0    0
   19:34.494   422818     A    0    0    0
   19:35.456   423164     N    0    0    0
   19:36.283   423462     N    0    0    0
   19:37.131   423767     N    0    0    0
   19:37.956   424064     N    0    0    0
   19:38.719   424339     N    0    0    0
   19:39.489   424616     N    0    0    0
   19:40.258   424893     N    0    0    0
   19:41.078   425188     N    0    0    0
   19:41.919   425491     N    0    0    0
   19:42.744   425788     N    0    0    0
   19:43.550   426078     N    0    0    0
   19:44.389   426380     N    0    0    0
   19:45.169   426661     N    0    0    0
   19:45.939   426938     N    0    0    0
   19:46.736   427225     N    0    0    0
   19:47.564   427523     N    0 $  0$   0
   19:48.008   427827     N    0    0    0
   19:49.247   428129     N    0    0    0
   19:50.036   428413     N    0    0    0
   19:50.828   428698     N    0    0    0
   19:51.644   428992     N    0    0    0
   19:52.433   429276     N    0    0    0
   19:53.217   429558     N    0    0    0
   19:54.075   429867     N    0    0    0
   19:54.903   430165     N    0    0    0
   19:55.750   430470     N    0    0    0
   19:56.539   430754     N    0    0    0
   19:57.317   431034     N    0    0    0
   19:58.097   431315     N    0    0    0
   19:58.931   431615     N    0    0    0
   19:59.750   431910     N    0    0    0
   20:00.581   432209     N    0    0    0
   20:01.414   432509     N    0    0    0
   20:02.219   432799     N    0    0    0
   20:03.006   433082     N    0    0    0
   20:03.789   433364     N    0    0    0
   20:04.578   433648     N    0    0    0
   20:05.114   433841     A    0    0    0
   20:06.142   434211     N    0    0    0
   20:06.981   434513     N    0    0    0
   20:07.806   434810     N    0    0    0
   20:08.600   435096     N    0    0    0
   20:09.361   435370     N    0    0    0
   20:10.161   435658     N    0    0    0
   20:10.975   435951     N    0    0    0
   20:11.525   436149     A    0    0    0
   20:12.533   436512     N    0    0    0
   20:13.386   436819     N    0    0    0
   20:14.217   437118     N    0    0    0
   20:15.000   437400     N    0    0    0
   20:15.783   437682     N    0    0    0
   20:16.569   437965     N    0    0    0
   20:17.411   438268     N    0    0    0
   20:18.250   438570     N    0    0    0
   20:19.069   438865     N    0    0    0
   20:19.883   439158     N    0    0    0
   20:20.706   439454     N    0    0    0
   20:21.500   439740     N    0    0    0
   20:22.283   440022     N    0    0    0
   20:23.089   440312     N    0    0    0
   20:23.950   440622     N    0    0    0
   20:24.817   440934     N    0    0    0
   20:25.639   441230     N    0    0    0
   20:26.439   441518     N    0    0    0
   20:27.261   441814     N    0    0    0
   20:28.081   442109     N    0    0    0
   20:28.906   442406     N    0    0    0
   20:29.508   442623     A    0    0    0
   20:30.533   442992     N    0    0    0
   20:31.400   443304     N    0    0    0
   20:32.239   443606     N    0    0    0
   20:33.022   443888     N    0    0    0
   20:33.819   444175     N    0    0    0
   20:34.647   444473     N    0    0    0
   20:35.292   444705     A    0    0    0
   20:36.278   445060     N    0    0    0
   20:37.117   445362     N    0    0    0
   20:37.939   445658     N    0    0    0
   20:38.744   445948     N    0    0    0
   20:39.517   446226     N    0    0    0
   20:40.297   446507     N    0    0    0
   20:41.111   446800     N    0    0    0
   20:41.956   447104     N    0    0    0
   20:42.783   447402     N    0    0    0
   20:43.597   447695     N    0    0    0
   20:44.389   447980     N    0    0    0
   20:45.178   448264     N    0    0    0
   20:45.967   448548     N    0    0    0
   20:46.761   448834     N    0    0    0
   20:47.603   449137     N    0    0    0
   20:48.447   449441     N    0    0    0
   20:49.300   449748     N    0    0    0
   20:50.106   450038     N    0    0    0
   20:50.903   450325     N    0    0    0
   20:51.686   450607     N    0    0    0
   20:52.486   450895     N    0    0    0
   20:53.314   451193     N    0    0    0
   20:54.169   451501     N    0    0    0
   20:55.014   451805     N    0    0    0
   20:55.836   452101     N    0    0    0
   20:56.639   452390     N    0    0    0
   20:57.439   452678     N    0    0    0
   20:58.219   452959     N    0    0    0
   20:59.028   453250     N    0    0    0
   20:59.847   453545     N    0    0    0
   21:00.700   453852     N    0    0    0
   21:01.539   454154     N    0    0    0
   21:02.344   454444     N    0    0    0
   21:02.919   454651     A    0    0$   4
   21:03.881   454997     N    0    0    0
   21:04.703   455293     N    0    0    0
   21:05.522   455588     N    0    0    0
   21:06.356   455888     N    0    0    0
   21:07.192   456189     N    0    0    0
   21:08.019   456487     N    0    0    0
   21:08.808   456771     N    0    0    0
   21:09.569   457045     N    0    0    0
   21:10.369   457333     N    0    0    0
   21:11.206   457634     N    0    0    0
   21:12.047   457937     N    0    0    0
   21:12.689   458168     A    0    0    0
   21:13.678   458524     N    0    0    0
   21:14.489   458816     N    0    0    0
   21:15.286   459103     N    0    0    0
   21:16.056   459380     N    0    0    0
   21:16.844   459664     N    0    0    0
   21:17.683   459966     N    0    0    0
   21:18.542   460275     N    0    0    0
   21:19.364   460571     N    0    0    0
   21:20.161   460858     N    0    0    0
   21:20.967   461148     N    0    0    0
   21:21.758   461433     N    0    0    0
   21:22.558   461721     N    0    0    0
   21:23.372   462014     N    0    0    0
   21:24.206   462314     N    0    0    0
   21:25.058   462621     N    0    0    0
   21:25.886   462919     N    0    0    0
   21:26.658   463197     N    0    0    0
   21:27.447   463481     N    0    0    0
   21:28.236   463765     N    0    0    0
   21:29.025   464049     N    0    0    0
   21:29.892   464361     N    0    0    0
   21:30.733   464664     N    0    0    0
   21:31.556   464960     N    0    0    0
   21:32.381   465257     N    0    0    0
   21:33.161   465538     N    0    0    0
   21:33.944   465820     N    0    0    0
   21:34.733   466104     N    0    0    0
   21:35.567   466404     N    0    0    0
   21:36.408   466707     N    0    0    0
   21:37.250   467010     N    0    0    0
   21:38.078   467308     N    0    0    0
   21:38.858   467589     N    0    0    0
   21:39.661   467878     N    0    0    0
   21:40.456   468164     N    0    0    0
   21:41.275   468459     N    0    0    0
   21:42.117   468762     N    0    0    0
   21:42.958   469065     N    0    0    0
   21:43.786   469363     N    0    0    0
   21:44.611   469660     N    0    0    0
   21:45.394   469942     N    0    0    0
   21:46.194   470230     N    0    0    0
   21:47.028   470530     N    0    0    0
   21:47.881   470837     N    0    0    0
   21:48.719   471139     N    0    0    0
   21:49.567   471444     N    0    0    0
   21:50.353   471727     N    0    0    0
   21:51.164   472019     N    0    0    0
   21:51.956   472304     N    0    0    0
   21:52.747   472589     N    0    0    0
   21:53.575   472887     N    0    0    0
   21:54.447   473201     N    0    0    0
   21:55.272   473498     N    0    0    0
   21:56.089   473792     N    0    0    0
   21:56.872   474074     N    0    0    0
   21:57.672   474362     N    0    0    0
   21:58.478   474652     N    0    0    0
   21:59.283   474942     N    0    0    0
   22:00.103   475237     N    0    0    0
   22:00.964   475547     N    0    0    0
   22:01.808   475851     N    0    0    0
   22:02.600   476136     N    0    0    0
   22:03.381   476417     N    0    0    0
   22:04.181   476705     N    0    0    0
   22:05.000   477000     N    0    0    0
   22:05.853   477307     N    0    0    0
   22:06.678   477604     N    0    0    0
   22:07.494   477898     N    0    0    0
   22:08.319   478195     N    0    0    0
   22:09.111   478480     N    0    0    0
   22:09.881   478757     N    0    0    0
   22:10.667   479040     N    0    0    0
   22:11.478   479332     N    0    0    0
   22:12.314   479633     N    0    0    0
   22:13.142   479931     N    0    0    0
   22:13.939   480218     N    0    0    0
   22:14.706   480494     N    0    0    0
   22:15.497   480779     N    0    0    0
   22:16.269   481057     N    0    0    0
   22:17.056   481340     N    0    0    0
   22:17.892   481641     N    0    0    0
   22:18.725   481941     N    0    0    4
 $ 22:19.553 $ 482239     N    0    0    0
   22:20.347   482525     N    0    0    0
   22:21.114   482801     N    0    0    0
   22:21.864   483071     N    0    0    0
   22:22.639   483350     N    0    0    0
   22:23.428   483634     N    0    0    0
   22:24.250   483930     N    0    0    0
   22:25.056   484220     N    0    0    0
   22:25.853   484507     N    0    0    0
   22:26.628   484786     N    0    0    0
   22:27.425   485073     N    0    0    0
   22:28.200   485352     N    0    0    0
   22:29.003   485641     N    0    0    0
   22:29.831   485939     N    0    0    0
   22:30.703   486253     N    0    0    0
   22:31.544   486556     N    0    0    0
   22:32.344   486844     N    0    0    0
   22:33.136   487129     N    0    0    0
   22:33.953   487423     N    0    0    0
   22:34.775   487719     N    0    0    0
   22:35.606   488018     N    0    0    0
   22:36.444   488320     N    0    0    0
   22:37.319   488635     N    0    0    0
   22:38.142   488931     N    0    0    0
   22:38.928   489214     N    0    0    0
   22:39.714   489497     N    0    0    0
   22:40.522   489788     N    0    0    0
   22:41.361   490090     N    0    0    0
   22:42.203   490393     N    0    0    0
   22:43.042   490695     N    0    0    0
   22:43.872   490994     N    0    0    0
   22:44.686   491287     N    0    0    0
   22:45.472   491570     N    0    0    0
   22:46.250   491850     N    0    0    0
   22:47.069   492145     N    0    0    0
   22:47.903   492445     N    0    0    0
   22:48.750   492750     N    0    0    0
   22:49.572   493046     N    0    0    0
   22:50.389   493340     N    0    0    0
   22:51.175   493623     N    0    0    0
   22:51.983   493914     N    0    0    0
   22:52.775   494199     N    0    0    0
   22:53.586   494491     N    0    0    0
   22:54.414   494789     N    0    0    0
   22:55.236   495085     N    0    0    0
   22:56.028   495370     N    0    0    0
   22:56.803   495649     N    0    0    0
   22:57.567   495924     N    0    0    0
   22:58.336   496201     N    0    0    0
   22:59.164   496499     N    0    0    0
   22:59.756   496712     A    0    0    0
   23:00.761   497074     N    0    0    0
   23:01.600   497376     N    0    0    0
   23:02.400   497664     N    0    0    0
   23:03.181   497945     N    0    0    0
   23:03.972   498230     N    0    0    0
   23:04.769   498517     N    0    0    0
   23:05.589   498812     N    0    0    0
   23:06.428   499114     N    0    0    0
   23:07.269   499417     N    0    0    0
   23:08.058   499701     N    0    0    0
   23:08.853   499987     N    0    0    0
   23:09.633   500268     N    0    0    0
   23:10.414   500549     N    0    0    0
   23:11.242   500847     N    0    0    0
   23:12.069   501145     N    0    0    0
   23:12.911   501448     N    0    0    0
   23:13.736   501745     N    0    0    0
   23:14.553   502039     N    0    0    0
   23:15.322   502316     N    0    0    0
   23:16.114   502601     N    0    0    0
   23:16.911   502888     N    0    0    0
   23:17.753   503191     N    0    0    0
   23:18.600   503496     N    0    0    0
   23:19.428   503794     N    0    0    0
   23:20.222   504080     N    0    0    0
   23:21.033   504372     N    0    0    0
   23:21.817   504654     N    0    0    0
   23:22.600   504936     N    0    0    0
   23:23.408   505227     N    0    0    0
   23:24.244   505528     N    0    0    0
   23:25.083   505830     N    0    0    0
   23:25.903   506125     N    0    0    0
   23:26.661   506398     N    0    0    0
   23:27.442   506679     N    0    0    0
   23:28.247   506969     N    0    0    0
   23:29.044   507256     N    0    0    0
   23:29.867   507552     N    0    0    0
   23:30.708   507855     N    0    0    0
   23:31.553   508159     N    0    0    0
   23:32.375   508455     N    0    0    0
   23:33.178   508744     N    0    0    0
   23:33.942   509019     N    0    0    0
 $ 23:34.775   509319     N    0    0    0
   23:35.619   509623     N    0    0    0
   23:36.453   509923     N    0    0    0
   23:37.278   510220     N    0    0    0
   23:38.111   510520     N    0    0    0
   23:38.900   510804     N    0    0    0
   23:39.703   511093     N    0    0    0
   23:40.475   511371     N    0    0    0
   23:41.278   511660     N    0    0    0
   23:42.139   511970     N    0    0    0
   23:42.992   512277     N    0    0    0
   23:43.797   512567     N    0    0    0
   23:44.586   512851     N    0    0    0
   23:45.375   513135     N    0    0    0
   23:46.178   513424     N    0    0    0
   23:46.997   513719     N    0    0    0
   23:47.817   514014     N    0    0    0
   23:48.661   514318     N    0    0    0
   23:49.522   514628     N    0    0    0
   23:50.331   514919     N    0    0    0
   23:51.094   515194     N    0    0    0
   23:51.878   515476     N    0    0    0
   23:52.672   515762     N    0    0    0
   23:53.514   516065     N    0    0    0
   23:54.364   516371     N    0    0    0
   23:55.186   516667     N    0    0    0
   23:56.028   516970     N    0    0    0
   23:56.850   517266     N    0    0    0
   23:57.647   517553     N    0    0    0
   23:58.422   517832     N    0    0    0
   23:59.242   518127     N    0    0    0
   24:00.072   518426     N    0    0    0
   24:00.928   518734     N    0    0    0
   24:01.744   519028     N    0    0    0
   24:02.519   519307     N    0    0    0
   24:03.317   519594     N    0    0    0
   24:04.117   519882     N    0    0    0
   24:04.858   520149     N    0    0    0
   24:05.731   520463     N    0    0    0
   24:06.578   520768     N    0    0    0
   24:07.172   520982     A    0    0    0
   24:08.172   521342     N    0    0    0
   24:08.964   521627     N    0    0    0
   24:09.758   521913     N    0    0    0
   24:10.581   522209     N    0    0    0
   24:11.419   522511     N    0    0    0
   24:12.264   522815     N    0    0    0
   24:13.100   523116     N    0    0    0
   24:13.933   523416     N    0    0    0
   24:14.744   523708     N    0    0    0
   24:15.553   523999     N    0    0    0
   24:16.331   524279     N    0    0    0
   24:17.158   524577     N    0    0    0
   24:18.028   524890     N    0    0    0
   24:18.883   525198     N    0    0    0
   24:19.700   525492     N    0    0    0
   24:20.500   525780     N    0    0    0
   24:21.289   526064     N    0    0    0
   24:22.097   526355     N    0    0    0
   24:22.906   526646     N    0    0    0
   24:23.725   526941     N    0    0    0
   24:24.564   527243     N    0    0    0
   24:25.414   527549     N    0    0    0
   24:26.217   527838     N    0    0    0
   24:26.994   528118     N    0    0    0
   24:27.783   528402     N    0    0    0
   24:28.581   528689     N    0    0    0
   24:29.419   528991     N    0    0    0
   24:30.258   529293     N    0    0    0
   24:31.108   529599     N    0    0    0
   24:31.936   529897     N    0    0    0
   24:32.753   530191     N    0    0    0
   24:33.531   530471     N    0    0    0
   24:34.339   530762     N    0    0    0
   24:35.158   531057     N    0    0    0
   24:35.994   531358     N    0    0    0
   24:36.856   531668     N    0    0    0
   24:37.686   531967     N    0    0    0
   24:38.492   532257     N    0    0    0
   24:39.289   532544     N    0    0    0
   24:40.078   532828     N    0    0    0
   24:40.892   533121     N    0    0    0
   24:41.711   533416     N    0    0    0
   24:42.553   533719     N    0    0    0
   24:43.367   534012     N    0    0    0
   24:44.186   534307     N    0    0    0
   24:44.978   534592     N    0    0    0
   24:45.758   534873     N    0    0    0
   24:46.558   535161     N    0    0    0
   24:47.386   535459     N    0    0    0
   24:48.244   535768     N    0    0    0
   24:49.075   536067     N    0    0    0
   24:49.900   536364     N    0    0    0
   24:50.678   536644$    N    0    0    0
   24:51.472   536930     N    0    0    0
   24:52.256   537212     N    0    0    0
   24:53.069   537505     N    0    0    0
   24:53.917   537810     N    0    0    0
   24:54.764   538115     N    0    0    0
   24:55.614   538421     N    0    0    0
   24:56.408   538707     N    0    0    0
   24:57.203   538993     N    0    0    0
   24:57.994   539278     N    0    0    0
   24:58.819   539575     N    0    0    0
   24:59.650   539874     N    0    0    0
   25:00.478   540172     N    0    0    0
   25:01.311   540472     N    0    0    0
   25:02.133   540768     N    0    0    0
   25:02.922   541052     N    0    0    0
   25:03.706   541334     N    0    0    0
   25:04.489   541616     N    0    0    0
   25:05.322   541916     N    0    0    0
   25:06.183   542226     N    0    0    0
   25:07.025   542529     N    0    0    0
   25:07.847   542825     N    0    0    0
   25:08.656   543116     N    0    0    0
   25:09.464   543407     N    0    0    0
   25:10.247   543689     N    0    0    0
   25:11.064   543983     N    0    0    0
   25:11.903   544285     N    0    0    0
   25:12.750   544590     N    0    0    0
   25:13.597   544895     N    0    0    0
   25:14.394   545182     N    0    0    0
   25:15.153   545455     N    0    0    0
   25:15.947   545741     N    0    0    0
   25:16.728   546022     N    0    0    0
   25:17.517   546306     N    0    0    0
   25:18.331   546599     N    0    0    0
   25:18.867   546792     V    1    0    0
   25:19.997   547199     N    0    0    0
   25:20.783   547482     N    0    0    0
   25:21.550   547758     N    0    0    0
   25:22.311   548032     N    0    0    0
   25:23.150   548334     N    0    0    0
   25:23.978   548632     N    0    0    0
   25:24.794   548926     N    0    0    0
   25:25.603   549217     N    0    0    0
   25:26.394   549502     N    0    0    0
   25:27.178   549784     N    0    0    0
   25:27.972   550070     N    0    0    0
   25:28.744   550348     N    0    0    0
   25:29.553   550639     N    0    0    0
   25:30.422   550952     N    0    0    0
   25:31.258   551253     N    0    0    0
   25:32.033   551532     N    0    0    0
   25:32.819   551815     N    0    0    0
   25:33.600   552096     N    0    0    0
   25:34.403   552385     N    0    0    0
   25:35.222   552680     N    0    0    0
   25:36.039   552974     N    0    0    0
   25:36.894   553282     N    0    0    0
   25:37.744   553588     N    0    0    0
   25:38.544   553876     N    0    0    0
   25:39.317   554154     N    0    0    0
   25:40.108   554439     N    0    0    0
   25:40.897   554723     N    0    0    0
   25:41.739   555026     N    0    0    0
   25:42.564   555323     N    0    0    0
   25:43.369   555613     N    0    0    0
   25:44.206   555914     N    0    0    0
   25:45.008   556203     N    0    0    0
   25:45.794   556486     N    0    0    0
   25:46.569   556765     N    0    0    0
   25:47.378   557056     N    0    0    0
   25:48.225   557361     N    0    0    0
   25:49.075   557667     N    0    0    0
   25:49.894   557962     N    0    0    0
   25:50.661   558238     N    0    0    0
   25:51.464   558527     N    0    0    0
   25:52.258   558813     N    0    0    0
   25:53.061   559102     N    0    0    0
   25:53.875   559395     N    0    0    0
   25:54.708   559695     N    0    0    0
   25:55.547   559997     N    0    0    0
   25:56.375   560295     N    0    0    0
   25:57.156   560576     N    0    0    0
   25:57.906   560846     N    0    0    0
   25:58.725   561141     N    0    0    0
   25:59.542   561435     N    0    0    0
   26:00.367   561732     N    0    0    0
   26:01.164   562019     N    0    0    0
   26:01.967   562308     N    0    0    0
   26:02.753   562591     N    0    0    0
   26:03.367   562812     A    0    0    0
   26:04.281   563141     N    0    0    0
   26:05.064   563423     N    0    0    0
   26:05.919 $ 563731    $N    0    0    0
   26:06.750   564030     N    0    0    0
   26:07.556   564320     N    0    0    0
   26:08.336   564601     N    0    0    0
   26:09.119   564883     N    0    0    0
   26:09.900   565164     N    0    0    0
   26:10.700   565452     N    0    0    0
   26:11.503   565741     N    0    0    0
   26:12.336   566041     N    0    0    0
   26:12.942   566259     A    0    0    0
   26:13.931   566615     N    0    0    0
   26:14.719   566899     N    0    0    0
   26:15.514   567185     N    0    0    0
   26:16.053   567379     A    0    0    0
   26:17.003   567721     N    0    0    0
   26:17.853   568027     N    0    0    0
   26:18.683   568326     N    0    0    0
   26:19.511   568624     N    0    0    0
   26:20.331   568919     N    0    0    0
   26:21.122   569204     N    0    0    0
   26:21.894   569482     N    0    0    0
   26:22.672   569762     N    0    0    0
   26:23.494   570058     N    0    0    0
   26:24.350   570366     N    0    0    0
   26:25.189   570668     N    0    0    0
   26:25.992   570957     N    0    0    0
   26:26.794   571246     N    0    0    0
   26:27.606   571538     N    0    0    0
   26:28.419   571831     N    0    0    0
   26:29.228   572122     N    0    0    0
   26:30.078   572428     N    0    0    0
   26:30.917   572730     N    0    0    0
   26:31.778   573040     N    0    0    0
   26:32.578   573328     N    0    0    0
   26:33.356   573608     N    0    0    0
   26:34.147   573893     N    0    0    0
   26:34.981   574193     N    0    0    0
   26:35.636   574429     A    0    0    0
   26:36.628   574786     N    0    0    0
   26:37.486   575095     N    0    0    0
   26:38.297   575387     N    0    0    0
   26:39.106   575678     N    0    0    0
   26:39.886   575959     N    0    0    0
   26:40.689   576248     N    0    0    0
   26:41.531   576551     N    0    0    0
   26:42.394   576862     N    0    0    0
   26:43.228   577162     N    0    0    0
   26:44.044   577456     N    0    0    0
   26:44.836   577741     N    0    0    0
   26:45.625   578025     N    0    0    0
   26:46.417   578310     N    0    0    0
   26:47.222   578600     N    0    0    0
   26:48.058   578901     N    0    0    0
   26:48.900   579204     N    0    0    0
   26:49.578   579448     A    0    0    0
   26:50.528   579790     N    0    0    0
   26:51.317   580074     N    0    0    0
   26:52.103   580357     N    0    0    0
   26:52.911   580648     N    0    0    0
   26:53.742   580947     N    0    0    0
   26:54.572   581246     N    0    0    0
   26:55.397   581543     N    0    0    0
   26:56.206   581834     N    0    0    0
   26:56.997   582119     N    0    0    0
   26:57.764   582395     N    0    0    0
   26:58.522   582668     N    0    0    0
   26:59.219   582919     N    0    0    0
   27:00.108   583239     N    0    0    0
   27:00.942   583539     N    0    0    0
   27:01.725   583821     N    0    0    0
   27:02.492   584097     N    0    0    0
   27:03.231   584363     N    0    0    0
   27:03.986   584635     N    0    0    0
   27:04.731   584903     N    0    0    0
   27:05.486   585175     N    0    0    0
   27:06.261   585454     N    0    0    0
   27:07.031   585731     N    0    0    0
   27:07.808   586011     N    0    0    0
   27:08.542   586275     N    0    0    0
   27:09.236   586525     N    0    0    0
   27:09.919   586771     N    0    0    0
   27:10.639   587030     N    0    0    0
   27:11.386   587299     N    0    0    0
   27:12.144   587572     N    0    0    0
   27:12.897   587843     N    0    0    0
   27:13.647   588113     N    0    0    0
   27:14.381   588377     N    0    0    0
   27:15.119   588643     N    0    0    0
   27:15.847   588905     N    0    0    0
   27:16.603   589177     N    0    0    0
   27:17.372   589454     N    0    0    0
   27:18.186   589747     N    0    0    0
   27:19.000   590040     N    0    0    0
   27:19.767 $ 594316     N  $ 0    0    0
   27:20.522   590588     N    0    0    0
   27:21.286   590863     N    0    0    0
   27:22.064   591143     N    0    0    0
   27:22.825   591417     N    0    0    0
   27:23.628   591706     N    0    0    0
   27:24.442   591999     N    0    0    0
   27:25.244   592288     N    0    0    0
   27:26.031   592571     N    0    0    0
   27:26.814   592853     N    0    0    0
   27:27.411   593068     A    0    0    0
   27:28.297   593387     N    0    0    0
   27:29.119   593683     N    0    0    0
   27:29.972   593990     N    0    0    0
   27:30.778   594280     N    0    0    0
   27:31.564   594563     N    0    0    0
   27:32.375   594855     N    0    0    0
   27:33.131   595127     N    0    0    0
   27:33.894   595402     N    0    0    0
   27:34.694   595690     N    0    0    0
   27:35.533   595992     N    0    0    0
   27:36.328   596278     N    0    0    0
   27:37.178   596584     N    0    0    0
   27:37.997   596879     N    0    0    0
   27:38.711   597136     N    0    0    0
   27:39.450   597402     N    0    0    0
   27:40.194   597670     N    0    0    0
   27:40.903   597925     N    0    0    0
   27:41.628   598186     N    0    0    0
   27:42.383   598458     N    0    0    0
   27:43.092   598713     N    0    0    0
   27:43.803   598969     N    0    0    0
   27:44.506   599222     N    0    0    0
   27:45.189   599468     N    0    0    0
   27:45.842   599703     N    0    0    0
   27:46.533   599952     N    0    0    0
   27:47.261   600214     N    0    0    0
   27:48.008   600483     N    0    0    0
   27:48.719   600739     N    0    0    0
   27:49.475   601011     N    0    0    0
   27:50.203   601273     N    0    0    0
   27:50.936   601537     N    0    0    0
   27:51.664   601799     N    0    0    0
   27:52.400   602064     N    0    0    0
   27:53.139   602330     N    0    0    0
   27:53.917   602610     N    0    0    0
   27:54.703   602893     N    0    0    0
   27:55.497   603179     N    0    0    0
   27:56.264   603455     N    0    0    0
   27:57.006   603722     N    0    0    0
   27:57.747   603989     N    0    0    0
   27:58.547   604277     N    0    0    0
   27:59.344   604564     N    0    0    0
   28:00.122   604844     N    0    0    0
   28:00.967   605148     N    0    0    0
   28:01.831   605459     N    0    0    0
   28:02.603   605737     N    0    0    0
   28:03.356   606008     N    0    0    0
   28:04.147   606293     N    0    0    0
   28:04.964   606587     N    0    0    0
   28:05.778   606880     N    0    0    0
   28:06.606   607178     N    0    0    0
   28:07.431   607475     N    0    0    0
   28:08.239   607766     N    0    0    0
   28:09.008   608043     N    0    0    0
   28:09.747   608309     N    0    0    0
   28:10.489   608576     N    0    0    0
   28:11.258   608853     N    0    0    0
   28:12.044   609136     N    0    0    0
   28:12.847   609425     N    0    0    0
   28:13.653   609715     N    0    0    0
   28:14.408   609987     N    0    0    0
   28:15.172   610262     N    0    0    0
   28:15.956   610544     N    0    0    0
   28:16.731   610823     N    0    0    0
   28:17.522   611108     N    0    0    0
   28:18.331   611399     N    0    0    0
   28:19.153   611695     N    0    0    0
   28:19.961   611986     N    0    0    0
   28:20.731   612263     N    0    0    0
   28:21.497   612539     N    0    0    0
   28:22.275   612819     N    0    0    0
   28:23.078   613108     N    0    0    0
   28:23.886   613399     N    0    0    0
   28:24.703   613693     N    0    0    0
   28:25.508   613983     N    0    0    0
   28:26.275   614259     N    0    0    0
   28:27.053   614539     N    0    0    0
   28:27.822   614816     N    0    0    0
   28:28.581   615089     N    0    0    0
   28:29.361   615370     N    0    0    0
   28:30.211   615676     N    0    0    0
   28:31.022   615968     N    0    0    0
   28:31.806   616250$    N    0 $  0    0
   28:32.572   616526     N    0    0    0
   28:33.342   616803     N    0    0    0
   28:34.128   617086     N    0    0    0
   28:34.906   617366     N    0    0    0
   28:35.708   617655     N    0    0    0
   28:36.525   617949     N    0    0    0
   28:37.356   618248     N    0    0    0
   28:38.133   618528     N    0    0    0
   28:38.900   618804     N    0    0    0
   28:39.669   619081     N    0    0    0
   28:40.450   619362     N    0    0    0
   28:41.258   619653     N    0    0    0
   28:42.086   619951     N    0    0    0
   28:42.914   620249     N    0    0    0
   28:43.725   620541     N    0    0    0
   28:44.517   620826     N    0    0    0
   28:45.283   621102     N    0    0    0
   28:46.053   621379     N    0    0    0
   28:46.836   621661     N    0    0    0
   28:47.622   621944     N    0    0    0
   28:48.464   622247     N    0    0    0
   28:49.281   622541     N    0    0    0
   28:50.064   622823     N    0    0    0
   28:50.803   623089     N    0    0    0
   28:51.575   623367     N    0    0    0
   28:52.328   623638     N    0    0    0
   28:53.103   623917     N    0    0    0
   28:53.864   624191     N    0    0    0
   28:54.672   624482     N    0    0    0
   28:55.458   624765     N    0    0    0
   28:56.244   625048     N    0    0    0
   28:56.969   625309     N    0    0    0
   28:57.719   625579     N    0    0    0
   28:58.481   625853     N    0    0    0
   28:59.272   626138     N    0    0    0
   29:00.075   626427     N    0    0    0
   29:00.875   626715     N    0    0    0
   29:01.667   627000     N    0    0    0
   29:02.447   627281     N    0    0    0
   29:03.208   627555     N    0    0    0
   29:03.964   627827     N    0    0    0
   29:04.731   628103     N    0    0    0
   29:05.531   628391     N    0    0    0
   29:06.356   628688     N    0    0    0
   29:07.169   628981     N    0    0    0
   29:07.697   629171     A    0    0    0
   29:08.594   629494     N    0    0    0
   29:09.336   629761     N    0    0    0
   29:10.075   630027     N    0    0    0
   29:10.803   630289     N    0    0    0
   29:11.558   630561     N    0    0    0
   29:12.322   630836     N    0    0    0
   29:13.083   631110     N    0    0    0
   29:13.825   631377     N    0    0    0
   29:14.544   631636     N    0    0    0
   29:15.272   631898     N    0    0    0
   29:15.989   632156     N    0    0    0
   29:16.706   632414     N    0    0    0
   29:17.467   632688     N    0    0    0
   29:18.217   632958     N    0    0    0
   29:18.969   633229     N    0    0    0
   29:19.717   633498     N    0    0    0
   29:20.467   633768     N    0    0    0
   29:21.189   634028     N    0    0    0
   29:21.897   634283     N    0    0    0
   29:22.625   634545     N    0    0    0
   29:23.406   634826     N    0    0    0
   29:24.186   635107     N    0    0    0
   29:24.983   635394     N    0    0    0
   29:25.789   635684     N    0    0    0
   29:26.572   635966     N    0    0    0
   29:27.328   636238     N    0    0    0
   29:28.111   636520     N    0    0    0
   29:28.919   636811     N    0    0    0
   29:29.736   637105     N    0    0    0
   29:30.553   637399     N    0    0    0
   29:31.400   637704     N    0    0    0
   29:32.214   637997     N    0    0    0
   29:33.006   638282     N    0    0    0
   29:33.778   638560     N    0    0    0
   29:34.572   638846     N    0    0    0
   29:35.389   639140     N    0    0    0
   29:36.239   639446     N    0    0    0
   29:37.067   639744     N    0    0    0
   29:37.886   640039     N    0    0    0
   29:38.692   640329     N    0    0    0
   29:39.486   640615     N    0    0    0
   29:40.278   640900     N    0    0    0
   29:41.050   641178     N    0    0    0
   29:41.886   641479     N    0    0    0
   29:42.714   641777     N    0    0    0
   29:43.514   642065     N    0    0    0
   29:44.269   642337$   $N    0    0$   0
   29:45.039   642614     N    0    0    0
   29:45.797   642887     N    0    0    0
   29:46.567   643164     N    0    0    0
   29:47.331   643439     N    0    0    0
   29:48.114   643721     N    0    0    0
   29:48.903   644005     N    0    0    0
   29:49.683   644286     N    0    0    0
   29:50.408   644547     N    0    0    0
   29:51.131   644807     N    0    0    0
   29:51.842   645063     N    0    0    0
   29:52.556   645320     N    0    0    0
   29:53.281   645581     N    0    0    0
   29:54.064   645863     N    0    0    0
   29:54.811   646132     N    0    0    0
   29:55.536   646393     N    0    0    0
   29:56.272   646658     N    0    0    0
   29:56.989   646916     N    0    0    0
   29:57.689   647168     N    0    0    0
   29:58.372   647414     N    0    0    0
   29:59.089   647672     N    0    0    0
   29:59.817   647934     N    0    0    0
   30:00.564   648203     N    0    0    0
   30:01.325   648477     N    0    0    0
   30:02.036   648733     N    0    0    0
   30:02.717   648978     N    0    0    0
   30:03.422   649232     N    0    0    0
   30:04.122   649484     N    0    0    0
   30:04.817   649734     N    0    0    0
   30:05.531   649991     N    0    0    0
